^D:\CODE\HELLOWORLD\HELLOWORLD\HELLO_WORLD.C
D:\DEVELOP\VC\VC\BIN\2052\CLUI.DLL
C:\WINDOWS\GLOBALIZATION\SORTING\SORTDEFAULT.NLS
D:\DEVELOP\VC\COMMON7\IDE\MSPDBSRV.EXE
C:\WINDOWS\SYSTEM32\TZRES.DLL
D:\DEVELOP\VC\VC\INCLUDE\STDIO.H
D:\DEVELOP\VC\VC\INCLUDE\CRTDEFS.H
D:\DEVELOP\VC\VC\INCLUDE\SAL.H
D:\DEVELOP\VC\VC\INCLUDE\CODEANALYSIS\SOURCEANNOTATIONS.H
D:\DEVELOP\VC\VC\INCLUDE\VADEFS.H
D:\DEVELOP\VC\VC\INCLUDE\SWPRINTF.INL
